Getting Started with flixpatrol – flixpatrol
…
Fetching Top 10 Rankings

Daily Top 10

# Get a week of Top 10 data
top10 <- get_top_ten(
  platform_name = "netflix",
  country_name  = "United States",
  start_date    = "2025-12-01",
  end_date      = "2025-12-07",
  media_type    = "movie"
)

top10
#> # A tibble: 70 x 7
#>     rank title                  type_id days_total rank_last date       imdb_id
#>    <int> <chr>                    <int>      <int>     <int> <chr>        <int>
#>  1     1 Carry-On                     1         15         1 2025-12-01  123456
#>  2     2 The Six Triple Eight         1          8         2 2025-12-01  234567
#>  3     3 Our Little Secret            1         21         3 2025-12-01  345678
#> # i 67 more rows

Filtering Results

library(dplyr)

# Find #1 movies each day
top10 |>
  filter(rank == 1) |>
  select(date, title, days_total)
#> # A tibble: 7 x 3
#>   date       title    days_total
#>   <chr>      <chr>         <int>
#> 1 2025-12-01 Carry-On         15
#> 2 2025-12-02 Carry-On         16
#> 3 2025-12-03 Carry-On         17
#> # i 4 more rows

# Titles that appeared multiple days
top10 |>
  count(title, sort = TRUE) |>
  filter(n > 3)
#> # A tibble: 8 x 2
#>   title                    n
#>   <chr>                <int>
#> 1 Carry-On                 7
#> 2 Our Little Secret        7
#> 3 The Six Triple Eight     7
#> # i 5 more rows
…
Netflix publishes weekly viewing hours. This requires a Monday-Sunday date range:

hours <- get_hours_viewed(
  platform_name   = "netflix",
  language_name   = "english",
  media_type      = "movie",
  start_date      = "2025-12-16",
  end_date        = "2025-12-22"
)

hours |>
  select(title, hours_viewed = data_value) |>
  arrange(desc(hours_viewed)) |>
  head(10)
#> # A tibble: 10 x 2
#>    title                hours_viewed
#>    <chr>                       <dbl>
#>  1 Carry-On                68500000
#>  2 The Six Triple Eight    42300000
#>  3 Our Little Secret       38100000
#> # i 7 more rows

Premieres

Get upcoming releases for a platform:

premieres <- get_premieres(
  platform_name = "netflix",
  start_date    = "2025-12-01",
  end_date      = "2025-12-31"
)

premieres |>
  select(title = movie_data_title, premiere_date = data_premiere, type = data_type) |>
  arrange(premiere_date)
#> # A tibble: 24 x 3
#>    title                  premiere_date type
#>    <chr>                  <chr>         <chr>
#>  1 Holiday Action Film    2025-12-01    movie
#>  2 Winter Romance         2025-12-05    movie
#>  3 New Crime Series       2025-12-08    tv_show
#> # i 21 more rows
…
Track a Title Over Time

history <- get_title_history(
  title         = "Stranger Things",
  platform_name = "netflix",
  country_name  = "United States",
  start_date    = "2025-12-01",
  end_date      = "2025-12-07",
  media_type    = "tv_show"
)

history
#> # A tibble: 7 x 4
#>   date       title           rank platform
#>   <chr>      <chr>          <int> <chr>
#> 1 2025-12-01 Stranger Things    1 netflix
#> 2 2025-12-02 Stranger Things    1 netflix
#> 3 2025-12-03 Stranger Things    2 netflix
#> # i 4 more rows
…
# View date granularities
flixpatrol::date_type_name
#> # A tibble: 7 x 2
#>   date_type_id date_type_name
#>          <int> <chr>
#>  1            1 day
#>  2            2 week
#>  3            3 month
#>  ...

# View torrent sites
flixpatrol::torrent_sites
#> # A tibble: 5 x 2
#>   torrent_site_id torrent_site_name
#>   <chr>           <chr>
#> 1 trs_1337x       1337x
#> 2 trs_eztv        eztv
#> 3 trs_piratebay   PirateBay
#> # i 2 more rows
…
